%YAML 1.1
%TAG !u! tag:unity3d.com,2011:
--- !u!1045 &1
EditorBuildSettings:
  m_ObjectHideFlags: 0
  serializedVersion: 2
  m_Scenes:
  - enabled: 1
    path: Assets/Scenes/Launcher.unity
    guid: 4062c3341ed70774f95cfba0e00c9323
  - enabled: 1
    path: Assets/Scenes/Room for 1.unity
    guid: 841b4aedfe3b4104b816a5be56c6ab9f
  - enabled: 1
    path: Assets/Scenes/Room for 2.unity
    guid: 2ad48a097bb888e4db451aa003cdfa29
  - enabled: 1
    path: Assets/Scenes/Room for 3.unity
    guid: 280e354dab8877347abf5c5b8f5dd897
  - enabled: 1
    path: Assets/Scenes/Room for 4.unity
    guid: f9427a27a1744a643a655e3a4ec27ae2
  m_configObjects: {}
